{
  "dev": {
    "awscloudformation": {
      "AuthRoleName": "amplify-todo-dev-124146-authRole",
      "UnauthRoleArn": "arn:aws:iam::452754751479:role/amplify-todo-dev-124146-unauthRole",
      "AuthRoleArn": "arn:aws:iam::452754751479:role/amplify-todo-dev-124146-authRole",
      "Region": "us-east-2",
      "DeploymentBucketName": "amplify-todo-dev-124146-deployment",
      "UnauthRoleName": "amplify-todo-dev-124146-unauthRole",
      "StackName": "amplify-todo-dev-124146",
      "StackId": "arn:aws:cloudformation:us-east-2:452754751479:stack/amplify-todo-dev-124146/6d284de0-8583-11eb-aa00-02191001dfee",
      "AmplifyAppId": "d2v4an7c0i2avz"
    },
    "categories": {
      "auth": {
        "todo08d8f929": {}
      }
    }
  }
}